%YAML 1.1
%TAG !u! tag:unity3d.com,2011:
--- !u!114 &11400000
MonoBehaviour:
  m_ObjectHideFlags: 0
  m_CorrespondingSourceObject: {fileID: 0}
  m_PrefabInstance: {fileID: 0}
  m_PrefabAsset: {fileID: 0}
  m_GameObject: {fileID: 0}
  m_Enabled: 1
  m_EditorHideFlags: 0
  m_Script: {fileID: 11500000, guid: 8334c90b07a685142b0055bdceec17af, type: 3}
  m_Name: SpriteDefault
  m_EditorClassIdentifier: 
  material: {fileID: 10754, guid: 0000000000000000f000000000000000, type: 0}
  shaderConfig: {fileID: 11400000, guid: 399ce20ef37227744b8384fe3d28d40b, type: 2}
